labs/lab_verif/transcript
# vsim -c -do "sim.do" -work ./target/sim_static/work counter_tb_opt -wlf ./target/sim_static/counter_tb_opt.wlf 
# Start time: 14:08:01 on Jun 05,2023
# ** Warning: (vsim-8891) -novopt option has no effect when used with the optimized design. -novopt option is now deprecated and will be removed in future releases.
# //  Questa Sim-64
# //  Version 2022.2 linux_x86_64 Apr 21 2022
# //
# //  Copyright 1991-2022 Mentor Graphics Corporation
# //  All Rights Reserved.
# //
# //  QuestaSim and its associated documentation contain trade
# //  secrets and commercial or financial information that are the property of
# //  Mentor Graphics Corporation and are privileged, confidential,
# //  and exempt from disclosure under the Freedom of Information Act,
# //  5 U.S.C. Section 552. Furthermore, this information
# //  is prohibited from disclosure under the Trade Secrets Act,
# //  18 U.S.C. Section 1905.
# //
# Loading sv_std.std
# Loading work.counter_tb(fast)
# Loading work.counter(fast)
# do sim.do
# symbolic
# 		time,	clk,	reset,	enable,	count
#                    0,	0,	0,	0,	 x
#                    5,	1,	0,	0,	 x
#                   10,	0,	0,	0,	 x
#                   15,	1,	0,	0,	 x
#                   20,	0,	1,	0,	 0
#                   25,	1,	1,	0,	 0
#                   30,	0,	0,	0,	 0
#                   35,	1,	0,	0,	 0
#                   40,	0,	0,	1,	 0
#                   45,	1,	0,	1,	 1
#                   50,	0,	0,	1,	 1
#                   55,	1,	0,	1,	 2
#                   60,	0,	0,	1,	 2
#                   65,	1,	0,	1,	 3
#                   70,	0,	0,	1,	 3
#                   75,	1,	0,	1,	 4
#                   80,	0,	0,	1,	 4
#                   85,	1,	0,	1,	 5
#                   90,	0,	0,	1,	 5
#                   95,	1,	0,	1,	 6
#                  100,	0,	0,	1,	 6
#                  105,	1,	0,	1,	 7
#                  110,	0,	0,	1,	 7
#                  115,	1,	0,	1,	 8
#                  120,	0,	0,	1,	 8
#                  125,	1,	0,	1,	 9
#                  130,	0,	0,	1,	 9
#                  135,	1,	0,	1,	10
#                  140,	0,	0,	0,	10
#                  145,	1,	0,	0,	10
# ** Note: $finish    : ./src/counter_tb.sv(41)
#    Time: 150 ps  Iteration: 0  Instance: :counter_tb
# End time: 14:08:02 on Jun 05,2023, Elapsed time: 0:00:01
# Errors: 0, Warnings: 1
